<?xml version="1.0" encoding="iso-8859-1"?>
<svg id="check-jungle-green" data-name="check-jungle-green" xmlns="http://www.w3.org/2000/svg" viewBox="0 0 48 48">
	<title>check-jungle-green</title>
	<polygon class="cls-1" points="18.94 35.43 7.5 24.01 8.81 22.7 18.93 32.83 39.19 12.57 40.5 13.87 18.94 35.43" style="fill:#2db95d"/>
</svg>
