<?xml version="1.0" encoding="iso-8859-1"?>
<svg id="user-circle" data-name="user-circle" xmlns="http://www.w3.org/2000/svg" viewBox="0 0 48 48">
	<defs>
		<style>.cls-1{fill:#231f20;}.cls-2{fill:none;}</style>
	</defs>
	<title>user-circle</title>
	<path class="cls-1"
		  d="M24,0A24,24,0,0,0,6.94,40.88h0A24,24,0,1,0,24,0Zm0,45.88A21.88,21.88,0,1,1,45.88,24,21.87,21.87,0,0,1,24,45.88Z"/>
	<path class="cls-2"
		  d="M23.91,6.65A9.08,9.08,0,0,0,19.6,8.37c-.19.17-.36.37-.54.55H30a6.78,6.78,0,0,0-.71-.76A9.25,9.25,0,0,0,23.91,6.65Z"/>
	<path class="cls-2"
		  d="M18,17.62a4.19,4.19,0,0,1,.26,1.1.83.83,0,0,1-.46.74,1,1,0,0,0-.47.83A2.89,2.89,0,0,0,17.61,22a.83.83,0,0,1,.61.8,5.35,5.35,0,0,0,2.11,4.27.83.83,0,0,1,.37.69v4.76a6.24,6.24,0,0,0,3.19.67,5.69,5.69,0,0,0,3.42-.82V27.79a.83.83,0,0,1,.37-.69,5.33,5.33,0,0,0,2.11-4.27.83.83,0,0,1,.61-.8,2.64,2.64,0,0,0,.33-1.12l-.06-.86a.89.89,0,0,0-.42-.61.83.83,0,0,1-.46-.74,4,4,0,0,1,.41-1.3,2.28,2.28,0,0,1,.17-.35,3,3,0,0,0-1.56-1.18,3.39,3.39,0,0,0-1.54.59A6.82,6.82,0,0,1,24,17.53a5.07,5.07,0,0,1-2.85-1,3.14,3.14,0,0,0-1.74-.66c-.42,0-.71.43-1.28,1.42l-.17.3Z"/>
	<path class="cls-2"
		  d="M14.43,18.14l-.37,1.07L14.5,19a5.7,5.7,0,0,0,2.2-2.5c.61-1.06,1.29-2.25,2.71-2.25a4.66,4.66,0,0,1,2.61.91,3.5,3.5,0,0,0,2,.72A5.37,5.37,0,0,0,26.46,15a4,4,0,0,1,2.65-.76c1.31.26,2.46,1.34,4,3.81a41,41,0,0,0-.85-4.37H16.1C15.47,15.16,14.93,16.69,14.43,18.14Z"/>
	<path class="cls-2"
		  d="M31.5,23.26l-.08.09A7,7,0,0,1,29,28.2v4l2,.75.86.32a2.24,2.24,0,0,1,.23-.28C33.4,31.64,32.31,25.36,31.5,23.26Z"/>
	<path class="cls-2"
		  d="M19,28.2a7,7,0,0,1-2.46-4.84,3,3,0,0,1-.84-1.59,4.69,4.69,0,0,1-.1-1.53c-.13.08-.25.16-.39.23s-.49.23-.71.33a3.08,3.08,0,0,0-1.61,1.28,12.18,12.18,0,0,1-.77,1.46L12,24c-1.6,3.9,0,9,.57,10.59,1.34-.54,2.84-1.09,4.47-1.69l2-.75Z"/>
	<path class="cls-1"
		  d="M37.72,43c.05-.17.29-4.44.36-5.34a5.86,5.86,0,0,1,2.51,2.09L42.07,39c-.61-1.21-1.94-2.2-3.85-3.15a25.84,25.84,0,0,0-2.69-13,33.51,33.51,0,0,1-.65-3.69,55.18,55.18,0,0,0-1-5.46,1.26,1.26,0,0,1-.28,0H32.2a41,41,0,0,1,.85,4.37c-1.49-2.48-2.64-3.56-4-3.81a4,4,0,0,0-2.65.76,5.37,5.37,0,0,1-2.46.86,3.5,3.5,0,0,1-2-.72,4.66,4.66,0,0,0-2.61-.91c-1.42,0-2.11,1.2-2.71,2.25A5.7,5.7,0,0,1,14.5,19l-.44.21.37-1.07c.5-1.45,1-3,1.67-4.43H14.93a1.26,1.26,0,0,1-.57-.14c-.56,1.34-1,2.72-1.49,4s-.91,2.61-1.38,3.67a13.53,13.53,0,0,0-1.06,2.13c-1.86,4.54-.05,10.17.58,11.86C8.45,36.39,6.66,37.52,5.93,39l1.48.74c.92-1.84,5.21-3.42,10.18-5.24l1.94-.72a6.72,6.72,0,0,0,3.54,1.09V46.31h1.65V34.84a6.59,6.59,0,0,0,3.61-1.15l2.1.78.7.26c-.81,2.21-1.89,9.94-2,10.76H30.9c.45-2.71,1.77-10.79,2.35-11.37,2.2-2.19.52-9.67-.3-11.63a3.17,3.17,0,0,0-.53-.93l-.05-.79C38.08,28.89,36.55,40.61,36,43ZM19.41,15.9a3.14,3.14,0,0,1,1.74.66,5.07,5.07,0,0,0,2.85,1,6.82,6.82,0,0,0,3.24-1.06,3.39,3.39,0,0,1,1.54-.59,3,3,0,0,1,1.56,1.18,2.28,2.28,0,0,0-.17.35,4,4,0,0,0-.41,1.3.83.83,0,0,0,.46.74.89.89,0,0,1,.42.61l.06.86A2.64,2.64,0,0,1,30.39,22a.83.83,0,0,0-.61.8,5.33,5.33,0,0,1-2.11,4.27.83.83,0,0,0-.37.69V32.4a5.69,5.69,0,0,1-3.42.82,6.24,6.24,0,0,1-3.19-.67V27.79a.83.83,0,0,0-.37-.69,5.35,5.35,0,0,1-2.11-4.27.83.83,0,0,0-.61-.8,2.89,2.89,0,0,1-.32-1.76,1,1,0,0,1,.47-.83.83.83,0,0,0,.46-.74,4.19,4.19,0,0,0-.26-1.1h0l.17-.3C18.7,16.33,19,15.9,19.41,15.9Zm-2.4,17c-1.63.6-3.13,1.15-4.47,1.69C12,33,10.36,27.93,12,24l.21-.49a12.18,12.18,0,0,0,.77-1.46,3.08,3.08,0,0,1,1.61-1.28c.23-.1.46-.2.71-.33s.26-.15.39-.23a4.69,4.69,0,0,0,.1,1.53,3,3,0,0,0,.84,1.59A7,7,0,0,0,19,28.2v4Zm14,0-2-.75v-4a7,7,0,0,0,2.46-4.84l.08-.09c.82,2.09,1.91,8.38.59,9.69a2.24,2.24,0,0,0-.23.28Z"/>
	<path class="cls-1"
		  d="M19.6,8.37a9.08,9.08,0,0,1,4.31-1.72,9.25,9.25,0,0,1,5.39,1.51,6.78,6.78,0,0,1,.71.76h2a9.09,9.09,0,0,0-1.63-2C29,5.64,25.87,4.92,23.84,5A10.65,10.65,0,0,0,18.5,7.14a11.91,11.91,0,0,0-1.6,1.79h2.16C19.23,8.74,19.4,8.54,19.6,8.37Z"/>
	<path class="cls-1"
		  d="M14.93,9.34a.87.87,0,0,0-.86.86.88.88,0,0,0,.86.91H33.62a.87.87,0,0,0,.86-.86.88.88,0,0,0-.86-.91Z"/>
	<path class="cls-1"
		  d="M14.07,12.39a.88.88,0,0,0,.86.91H33.62a.87.87,0,0,0,.86-.86.88.88,0,0,0-.86-.91H14.93A.87.87,0,0,0,14.07,12.39Z"/>
</svg>
