<?xml version="1.0" encoding="iso-8859-1"?>
<svg id="user" data-name="user" xmlns="http://www.w3.org/2000/svg" viewBox="0 0 48 48">
	<defs>
		<style>.cls-1{fill:none;}.cls-2{fill:#231f20;}</style>
	</defs>
	<title>user</title>
	<path class="cls-1"
		  d="M23.89,3.33a11,11,0,0,0-5.23,2.08c-.23.21-.44.44-.65.67H31.27a8.22,8.22,0,0,0-.86-.92C29.25,4.11,26.16,3.25,23.89,3.33Z"/>
	<path class="cls-1"
		  d="M16.68,16.61A5.07,5.07,0,0,1,17,17.94a1,1,0,0,1-.55.89,1.23,1.23,0,0,0-.57,1A3.51,3.51,0,0,0,16.26,22a1,1,0,0,1,.74,1,6.48,6.48,0,0,0,2.55,5.17,1,1,0,0,1,.45.83v5.76a7.56,7.56,0,0,0,3.86.82,6.89,6.89,0,0,0,4.14-1V28.94a1,1,0,0,1,.45-.83A6.45,6.45,0,0,0,31,22.94a1,1,0,0,1,.74-1,3.2,3.2,0,0,0,.4-1.36l-.07-1a1.07,1.07,0,0,0-.51-.74,1,1,0,0,1-.55-.89,4.88,4.88,0,0,1,.49-1.58,2.77,2.77,0,0,1,.2-.43,3.68,3.68,0,0,0-1.89-1.42,4.11,4.11,0,0,0-1.87.71A8.27,8.27,0,0,1,24,16.51a6.14,6.14,0,0,1-3.45-1.18,3.8,3.8,0,0,0-2.11-.8c-.51,0-.86.53-1.55,1.72l-.21.36Z"/>
	<path class="cls-1"
		  d="M12.41,17.24,12,18.54c.17-.08.35-.15.54-.25a6.9,6.9,0,0,0,2.67-3c.73-1.28,1.57-2.73,3.29-2.73a5.64,5.64,0,0,1,3.17,1.11,4.23,4.23,0,0,0,2.39.87,6.51,6.51,0,0,0,3-1,4.87,4.87,0,0,1,3.21-.92c1.59.31,3,1.62,4.79,4.62a49.69,49.69,0,0,0-1-5.29H14.43C13.66,13.64,13,15.49,12.41,17.24Z"/>
	<path class="cls-1"
		  d="M33.08,23.46l-.1.11a8.51,8.51,0,0,1-3,5.87v4.82l2.47.91,1,.38a2.72,2.72,0,0,1,.28-.34C35.39,33.6,34.07,26,33.08,23.46Z"/>
	<path class="cls-1"
		  d="M18,29.43a8.51,8.51,0,0,1-3-5.87,3.57,3.57,0,0,1-1-1.92,5.69,5.69,0,0,1-.12-1.85c-.15.1-.3.19-.47.28s-.59.28-.87.4A3.73,3.73,0,0,0,10.6,22a14.75,14.75,0,0,1-.93,1.77l-.25.59c-1.94,4.73,0,10.91.69,12.83,1.63-.65,3.44-1.32,5.42-2.05L18,34.25Z"/>
	<path class="cls-2"
		  d="M40.37,43.39a10.47,10.47,0,0,0,.7-2.53,7.1,7.1,0,0,1,3,2.53l1.79-.89c-.73-1.47-2.36-2.66-4.66-3.81A31.3,31.3,0,0,0,38,22.92a40.6,40.6,0,0,1-.79-4.47A66.84,66.84,0,0,0,36,11.84a1.53,1.53,0,0,1-.34,0H33.94a49.69,49.69,0,0,1,1,5.29c-1.81-3-3.2-4.31-4.79-4.62a4.87,4.87,0,0,0-3.21.92,6.51,6.51,0,0,1-3,1,4.23,4.23,0,0,1-2.39-.87,5.64,5.64,0,0,0-3.17-1.11c-1.72,0-2.55,1.45-3.29,2.73a6.9,6.9,0,0,1-2.67,3c-.19.1-.36.17-.54.25l.45-1.3c.61-1.75,1.26-3.6,2-5.36H13a1.53,1.53,0,0,1-.69-.17c-.67,1.63-1.25,3.29-1.81,4.88S9.42,19.75,8.85,21a16.4,16.4,0,0,0-1.28,2.58c-2.25,5.5-.06,12.32.7,14.37C5.16,39.36,3,40.73,2.11,42.5l1.79.89C5,41.16,10.2,39.25,16.22,37l2.35-.87a8.15,8.15,0,0,0,4.28,1.32v5.91h2V37.48a8,8,0,0,0,4.38-1.39l2.54.94.85.31a37,37,0,0,0-1.74,6H33c.55-3.29,1.46-6.08,2.16-6.77,2.66-2.66.63-11.71-.36-14.09a3.84,3.84,0,0,0-.65-1.13l-.07-1c6.93,9.83,4.81,20.09,4.14,23ZM18.44,14.53a3.8,3.8,0,0,1,2.11.8A6.14,6.14,0,0,0,24,16.51a8.27,8.27,0,0,0,3.93-1.29,4.11,4.11,0,0,1,1.87-.71,3.68,3.68,0,0,1,1.89,1.42,2.77,2.77,0,0,0-.2.43A4.88,4.88,0,0,0,31,17.94a1,1,0,0,0,.55.89,1.07,1.07,0,0,1,.51.74l.07,1a3.2,3.2,0,0,1-.4,1.36,1,1,0,0,0-.74,1,6.45,6.45,0,0,1-2.55,5.17,1,1,0,0,0-.45.83v5.58a6.89,6.89,0,0,1-4.14,1A7.56,7.56,0,0,1,20,34.71V28.94a1,1,0,0,0-.45-.83A6.48,6.48,0,0,1,17,22.94a1,1,0,0,0-.74-1,3.51,3.51,0,0,1-.39-2.13,1.23,1.23,0,0,1,.57-1,1,1,0,0,0,.55-.89,5.07,5.07,0,0,0-.32-1.33h0l.21-.36C17.58,15.06,17.93,14.53,18.44,14.53ZM15.53,35.16c-2,.73-3.79,1.4-5.42,2.05-.69-1.92-2.63-8.1-.69-12.83l.25-.59A14.75,14.75,0,0,0,10.6,22a3.73,3.73,0,0,1,1.95-1.54c.27-.12.56-.24.87-.4s.32-.18.47-.28A5.69,5.69,0,0,0,14,21.64a3.57,3.57,0,0,0,1,1.92,8.51,8.51,0,0,0,3,5.87v4.82Zm16.94,0L30,34.25V29.43a8.51,8.51,0,0,0,3-5.87l.1-.11c1,2.53,2.31,10.15.71,11.74a2.72,2.72,0,0,0-.28.34Z"/>
	<path class="cls-2"
		  d="M18.66,5.41a11,11,0,0,1,5.23-2.08c2.27-.08,5.36.78,6.52,1.83a8.22,8.22,0,0,1,.86.92h2.45a11,11,0,0,0-2-2.41C30,2.1,26.26,1.23,23.81,1.33a12.9,12.9,0,0,0-6.47,2.58A14.43,14.43,0,0,0,15.4,6.08H18C18.23,5.86,18.43,5.62,18.66,5.41Z"/>
	<path class="cls-2" d="M13,6.58a1,1,0,0,0-1,1,1.06,1.06,0,0,0,1,1.1H35.65a1,1,0,0,0,1-1,1.06,1.06,0,0,0-1-1.1Z"/>
	<path class="cls-2"
		  d="M12,10.28a1.06,1.06,0,0,0,1,1.1H35.65a1,1,0,0,0,1-1,1.06,1.06,0,0,0-1-1.1H13A1,1,0,0,0,12,10.28Z"/>
</svg>
